{
  "HALProvider": {
    "DIO": {
      "window": {
        "visible": true
      }
    },
    "Encoders": {
      "0": {
        "header": {
          "open": true
        }
      },
      "window": {
        "visible": true
      }
    },
    "Other Devices": {
      "ADXRS450[0]": {
        "header": {
          "open": true
        }
      },
      "Compressor[0]": {
        "header": {
          "open": true
        }
      },
      "SPARK MAX [1]": {
        "header": {
          "open": true
        }
      },
      "SPARK MAX [20]": {
        "header": {
          "open": true
        }
      },
      "SPARK MAX [21]": {
        "header": {
          "open": true
        }
      },
      "SPARK MAX [22]": {
        "header": {
          "open": true
        }
      },
      "SPARK MAX [2]": {
        "header": {
          "open": true
        }
      },
      "Victor SPX[10]": {
        "header": {
          "open": true
        }
      },
      "Victor SPX[11]": {
        "header": {
          "open": true
        }
      },
      "Victor SPX[13]": {
        "header": {
          "open": true
        }
      },
      "Victor SPX[14]": {
        "header": {
          "open": true
        }
      }
    },
    "PWM Outputs": {
      "window": {
        "visible": true
      }
    },
    "RoboRIO": {
      "RoboRIO Input": {
        "open": true
      },
      "window": {
        "visible": true
      }
    },
    "Solenoids": {
      "0": {
        "header": {
          "open": true
        }
      },
      "window": {
        "visible": true
      }
    }
  },
  "NTProvider": {
    "types": {
      "/FMSInfo": "FMSInfo",
      "/LiveWindow/BallCollector": "Subsystem",
      "/LiveWindow/BallShooter": "Subsystem",
      "/LiveWindow/Blinkin": "Subsystem",
      "/LiveWindow/Climber": "Subsystem",
      "/LiveWindow/DriveTrain": "Subsystem",
      "/LiveWindow/Ungrouped/ADXRS450_Gyro[0]": "Gyro",
      "/LiveWindow/Ungrouped/DifferentialDrive[1]": "DifferentialDrive",
      "/LiveWindow/Ungrouped/DigitalInput[6]": "Digital Input",
      "/LiveWindow/Ungrouped/PIDController[10]": "PIDController",
      "/LiveWindow/Ungrouped/PIDController[11]": "PIDController",
      "/LiveWindow/Ungrouped/PIDController[12]": "PIDController",
      "/LiveWindow/Ungrouped/PIDController[13]": "PIDController",
      "/LiveWindow/Ungrouped/PIDController[14]": "PIDController",
      "/LiveWindow/Ungrouped/PIDController[15]": "PIDController",
      "/LiveWindow/Ungrouped/PIDController[16]": "PIDController",
      "/LiveWindow/Ungrouped/PIDController[17]": "PIDController",
      "/LiveWindow/Ungrouped/PIDController[18]": "PIDController",
      "/LiveWindow/Ungrouped/PIDController[19]": "PIDController",
      "/LiveWindow/Ungrouped/PIDController[1]": "PIDController",
      "/LiveWindow/Ungrouped/PIDController[20]": "PIDController",
      "/LiveWindow/Ungrouped/PIDController[2]": "PIDController",
      "/LiveWindow/Ungrouped/PIDController[3]": "PIDController",
      "/LiveWindow/Ungrouped/PIDController[4]": "PIDController",
      "/LiveWindow/Ungrouped/PIDController[5]": "PIDController",
      "/LiveWindow/Ungrouped/PIDController[6]": "PIDController",
      "/LiveWindow/Ungrouped/PIDController[7]": "PIDController",
      "/LiveWindow/Ungrouped/PIDController[8]": "PIDController",
      "/LiveWindow/Ungrouped/PIDController[9]": "PIDController",
      "/LiveWindow/Ungrouped/Scheduler": "Scheduler",
      "/LiveWindow/Ungrouped/Spark[5]": "Motor Controller",
      "/LiveWindow/Ungrouped/Spark[6]": "Motor Controller",
      "/LiveWindow/Ungrouped/Spark[7]": "Motor Controller",
      "/LiveWindow/Ungrouped/Victor SPX [11]": "Motor Controller",
      "/LiveWindow/Ungrouped/Victor SPX [14]": "Motor Controller",
      "/LiveWindow/Ungrouped/Victor[5]": "Motor Controller",
      "/LiveWindow/Ungrouped/Victor[6]": "Motor Controller",
      "/Shuffleboard/Auto/Auto Modes": "String Chooser",
      "/Shuffleboard/Ball Collector/Grid/Lower": "Command",
      "/Shuffleboard/Ball Collector/Grid/Raise": "Command",
      "/Shuffleboard/Ball Collector/Intake Motor/Intake Motor": "Motor Controller",
      "/Shuffleboard/Ball Collector/Intake Motor/Start": "Command",
      "/Shuffleboard/Ball Collector/Intake Motor/Stop": "Command",
      "/Shuffleboard/Ball Collector/Pneumatics/Lower": "Command",
      "/Shuffleboard/Ball Collector/Pneumatics/Raise": "Command",
      "/Shuffleboard/Ball Collector/Queuing Motor/Queuing Motor": "Motor Controller",
      "/Shuffleboard/Ball Collector/Queuing Motor/Start": "Command",
      "/Shuffleboard/Ball Collector/Queuing Motor/Stop": "Command",
      "/Shuffleboard/Climber/Lift Motor/StartLift": "Command",
      "/Shuffleboard/Climber/Lift Motor/Stop Lift": "Command",
      "/Shuffleboard/Climber/Pneumatics/Tilt Back": "Command",
      "/Shuffleboard/Climber/Pneumatics/Tilt Forward": "Command",
      "/Shuffleboard/Commands/Drive Command/Drive Heading": "Command",
      "/Shuffleboard/DriveTrain/Differential Drive": "DifferentialDrive",
      "/Shuffleboard/DriveTrain/Drive Simple Arc/Drive Arc": "Command",
      "/Shuffleboard/DriveTrain/Gyroscope/Gyro": "Gyro",
      "/Shuffleboard/DriveTrain/Gyroscope/Zero Gyro": "Command",
      "/Shuffleboard/DriveTrain/Left Motors/Test Motor": "Motor Controller",
      "/Shuffleboard/DriveTrain/Nav Commands/Drive Heading": "Command",
      "/Shuffleboard/DriveTrain/Nav Commands/Reset Encoders": "Command",
      "/Shuffleboard/DriveTrain/Nav Commands/Turn 15": "Command",
      "/Shuffleboard/DriveTrain/TestMotor": "Motor Controller",
      "/Shuffleboard/Shooter/Feed Motor/Start": "Command",
      "/Shuffleboard/Shooter/Feed Motor/Stop": "Command",
      "/Shuffleboard/Shooter/Shooter Motor/Start": "Command",
      "/Shuffleboard/Shooter/Shooter Motor/Stop": "Command",
      "/Shuffleboard/SmartDashboard/Auto Modes": "String Chooser",
      "/SmartDashboard/Auto Modes": "String Chooser",
      "/SmartDashboard/Autonomous Modes": "String Chooser",
      "/SmartDashboard/Drive Train": "DifferentialDrive",
      "/SmartDashboard/Gyro": "Gyro"
    },
    "windows": {
      "/LiveWindow/Blinkin": {
        "window": {
          "visible": true
        }
      },
      "/LiveWindow/Ungrouped/Scheduler": {
        "window": {
          "visible": true
        }
      },
      "/SmartDashboard/Auto Modes": {
        "window": {
          "visible": true
        }
      }
    }
  },
  "NetworkTables": {
    "Shuffleboard": {
      "open": true
    }
  }
}
